timestamp,open,high,low,close,volume
2020-01-13,36.9300,37.6600,36.8800,37.6100,1964690
2020-01-10,36.6700,37.0100,36.6000,36.9000,1599765
2020-01-09,36.6700,36.7800,36.3800,36.5900,1371799
2020-01-08,36.4800,36.7200,36.3750,36.6700,1808569
2020-01-07,36.7800,36.8200,36.0800,36.4000,1849975
2020-01-06,36.4500,37.1150,36.3800,36.8400,3328260
2020-01-03,36.0000,36.8900,35.9900,36.7600,3162738
2020-01-02,37.3000,37.4000,35.8400,36.0900,2509116
2019-12-31,36.8400,37.2400,36.7700,37.2400,1093090
2019-12-30,36.7400,36.8800,36.5150,36.8700,1315238
2019-12-27,37.1700,37.2000,36.8350,37.0700,1316110
2019-12-26,37.0200,37.2500,36.8700,37.0200,895295
2019-12-24,36.8400,37.0500,36.7103,36.8700,633050
2019-12-23,37.3200,37.4112,36.6600,36.7500,1480202
2019-12-20,37.0900,37.3550,36.9800,37.1300,1876589
2019-12-19,37.1800,37.3800,36.9100,37.0500,1778361
2019-12-18,37.0000,37.3800,36.9600,37.1400,2263448
2019-12-17,37.7000,37.7850,36.9200,37.0100,2637021
2019-12-16,37.3400,37.5600,36.6450,37.4200,3237798
2019-12-13,37.4400,37.6512,36.7400,37.3000,3280795
2019-12-12,38.5000,38.6000,37.3200,37.4000,2796871
2019-12-11,39.3000,39.3900,38.4105,38.5600,2472411
2019-12-10,39.6100,39.7800,39.3000,39.4200,2004809
2019-12-09,39.6800,39.6900,39.2800,39.5100,2631701
2019-12-06,40.0000,40.1000,39.4000,39.4100,2763544
2019-12-05,39.9600,40.1150,39.7200,40.0200,1546178
2019-12-04,39.9300,40.3500,39.8700,40.1000,1269706
2019-12-03,39.9700,40.3450,39.8000,39.9900,1647899
2019-12-02,40.5400,40.6800,40.0150,40.0300,1456194
2019-11-29,40.8200,40.9600,40.6200,40.7100,719680
2019-11-27,40.6100,40.8500,40.4030,40.7600,1451286
2019-11-26,40.3200,40.8250,40.1400,40.8000,2845642
2019-11-25,40.2700,40.5400,40.1500,40.2400,1004924
2019-11-22,40.2500,40.3600,39.7800,40.1500,1421221
2019-11-21,40.3900,40.4800,40.1900,40.2500,2200626
2019-11-20,40.1200,40.4400,39.9500,40.4300,3616430
2019-11-19,40.1100,40.3000,39.9500,40.0400,1490227
2019-11-18,40.4100,40.7000,40.1400,40.1700,1305144
2019-11-15,39.9700,40.4200,39.7700,40.3900,1567438
2019-11-14,39.9600,40.1100,39.7150,39.9700,1130688
2019-11-13,38.9800,39.9850,38.9800,39.8400,1749444
2019-11-12,39.2500,39.5200,38.9200,38.9600,1586841
2019-11-11,38.8500,39.3650,38.8000,39.2500,1390721
2019-11-08,39.0500,39.3400,38.7700,38.8200,1665230
2019-11-07,38.8700,39.3252,38.8350,39.1800,2472215
2019-11-06,39.2500,39.4000,38.8400,39.0000,2766913
2019-11-05,39.7800,39.8100,38.4700,38.9200,2579973
2019-11-04,40.1900,40.4300,39.9400,40.0700,2039672
2019-11-01,40.6200,40.7750,40.1000,40.3900,1614787
2019-10-31,39.9600,40.6856,39.7500,40.5000,2557480
2019-10-30,39.3600,39.9300,39.1100,39.9300,1902076
2019-10-29,39.1100,39.6700,39.0500,39.2900,2286517
2019-10-28,38.8600,39.1200,38.6400,39.1000,2328115
2019-10-25,38.9100,38.9400,38.6300,38.8900,2395340
2019-10-24,38.9000,39.0650,38.6100,38.9400,1193258
2019-10-23,38.5600,38.8800,38.4150,38.8700,1523565
2019-10-22,38.6600,38.7700,38.2500,38.4300,1470196
2019-10-21,37.7700,38.6100,37.7700,38.5800,1486437
2019-10-18,37.6800,37.9300,37.4900,37.9000,1196592
2019-10-17,37.5200,37.7700,37.5100,37.6400,1082587
2019-10-16,37.6400,37.8600,37.1500,37.5700,1302135
2019-10-15,37.6000,37.7100,37.3800,37.6300,907025
2019-10-14,37.7400,37.7900,37.4100,37.6000,812352
2019-10-11,37.8200,37.9000,37.4500,37.6500,1130095
2019-10-10,37.9000,38.1100,37.7600,37.8000,2298418
2019-10-09,37.9500,38.1600,37.8100,38.0000,1235500
2019-10-08,38.0100,38.0700,37.5100,37.7700,990120
2019-10-07,37.8600,38.0518,37.7500,37.8600,1040812
2019-10-04,37.8200,38.0700,37.6400,38.0500,852013
2019-10-03,37.2700,38.1200,37.2700,37.7300,1245364
2019-10-02,37.7500,37.8000,36.9500,37.2800,1703132
2019-10-01,37.3500,37.7100,36.9000,37.6100,832608
2019-09-30,37.2100,37.5300,37.1900,37.4100,1042865
2019-09-27,37.6400,37.6955,36.9800,37.2400,1052296
2019-09-26,37.4000,38.4400,37.3700,38.0100,987541
2019-09-25,37.5300,37.6200,37.0500,37.2100,1371608
2019-09-24,37.5900,37.7100,37.3400,37.4300,1231331
2019-09-23,37.6400,37.8501,37.5700,37.5700,1097626
2019-09-20,37.3800,37.7150,37.2600,37.5800,2438476
2019-09-19,37.0000,37.4000,36.9300,37.2800,893153
2019-09-18,37.3400,37.3650,36.8300,36.9600,1123361
2019-09-17,36.7900,37.2958,36.7501,37.1700,1024747
2019-09-16,36.0600,36.8050,36.0400,36.6800,1431297
2019-09-13,36.7200,36.8399,35.8800,36.0700,1160848
2019-09-12,36.6900,36.9300,36.3200,36.5900,1140968
2019-09-11,36.0700,36.4300,35.8300,36.2300,2120810
2019-09-10,37.0000,37.0800,35.9000,36.2300,2323596
2019-09-09,37.6300,37.6500,37.0100,37.0800,1440015
2019-09-06,37.6600,37.9200,37.5800,37.6800,1454382
2019-09-05,38.4600,38.4700,37.6700,37.6700,1927086
2019-09-04,38.4900,38.7550,38.4100,38.7200,1460873
2019-09-03,37.7200,38.3800,37.6700,38.2800,1604388
2019-08-30,37.4800,37.9300,37.4000,37.7600,1848258
2019-08-29,37.4200,37.6050,37.1500,37.4800,1152542
2019-08-28,37.2200,37.3300,37.1000,37.2300,830561
2019-08-27,37.2500,37.4700,37.0000,37.1900,2264614
2019-08-26,36.9300,37.0151,36.5600,36.9500,1261763
2019-08-23,36.9000,37.3000,36.6200,36.6700,1873623
2019-08-22,36.3500,36.9300,36.3500,36.9000,836147
2019-08-21,36.4800,36.5900,36.2300,36.3700,1418358
2019-08-20,36.7500,36.8250,36.3000,36.5000,1433079
2019-08-19,36.5700,36.7000,36.2900,36.6200,1301188
2019-08-16,36.2100,36.7400,36.2000,36.5900,1210725
2019-08-15,36.1100,36.3900,35.9600,36.2200,1251546
2019-08-14,35.9000,36.2300,35.8300,35.9700,1142125
2019-08-13,36.0800,36.2200,35.8201,36.1900,1270202
2019-08-12,36.3300,36.3900,35.8400,36.0600,1442851
2019-08-09,35.9200,36.2700,35.8331,36.2700,1426827
2019-08-08,35.6000,36.0750,35.2500,35.9400,1219829
2019-08-07,34.8700,35.9100,34.7600,35.5800,1815930
2019-08-06,34.6000,35.2900,34.5600,34.8700,1706687
2019-08-05,34.6400,34.9800,34.0700,34.6200,2495244
2019-08-02,34.2000,35.0100,34.1000,34.6500,1416633
2019-08-01,34.3900,34.3985,33.6150,34.2000,1912271
2019-07-31,34.3100,34.5337,33.9500,34.2100,1423433
2019-07-30,34.2000,34.7300,34.1350,34.3300,867713
2019-07-29,34.3800,34.6300,34.1800,34.2800,1267996
2019-07-26,34.0000,34.3250,33.9750,34.2100,1251364
2019-07-25,34.3200,34.3300,33.8750,34.0000,1821529
2019-07-24,34.2600,34.4800,34.0800,34.4100,1616071
2019-07-23,33.8200,34.2050,33.6800,34.1600,1110474
2019-07-22,33.7200,33.9400,33.2299,33.8000,2277125
2019-07-19,33.9100,34.0300,33.5500,33.6000,1536787
2019-07-18,33.7000,33.9700,33.5900,33.9300,1490898
2019-07-17,34.0800,34.1600,33.6150,33.7800,1109401
2019-07-16,34.0200,34.2100,33.8526,33.9200,1460922
2019-07-15,34.3200,34.4700,33.8100,34.1000,941110
2019-07-12,34.1900,34.3800,34.0200,34.2500,882656
2019-07-11,34.6000,34.8000,34.0068,34.2200,1082036
2019-07-10,34.5200,34.7300,34.2200,34.5900,1058237
2019-07-09,34.2000,34.4350,34.1500,34.4200,861737
2019-07-08,34.1100,34.3500,33.9550,34.2400,873630
2019-07-05,33.9400,34.1700,33.4100,34.1100,971011
2019-07-03,33.8500,34.5050,33.8500,34.2700,924922
2019-07-02,33.2800,33.9700,33.2800,33.8500,1931269
2019-07-01,33.4300,33.5000,32.4638,33.1200,1698655
2019-06-28,33.2400,33.6200,33.1200,33.1900,2404365
2019-06-27,33.0200,33.2700,32.8400,33.2100,1572710
2019-06-26,34.2700,34.2700,32.9000,33.0500,2197979
2019-06-25,34.9500,35.0700,34.2700,34.2700,1647149
2019-06-24,35.1100,35.1500,34.7200,34.8400,1215994
2019-06-21,35.2900,35.2900,34.6850,34.9900,2934715
2019-06-20,35.3000,35.5900,35.1000,35.4600,1535435
2019-06-19,34.6100,35.2400,34.5600,35.1900,1471861
2019-06-18,35.3300,35.3800,34.6300,34.7900,1137850
2019-06-17,35.2300,35.5500,35.0500,35.1500,1118296
2019-06-14,35.0000,35.4900,34.9900,35.1700,1063349
2019-06-13,34.8900,35.0800,34.7700,35.0000,1596462
2019-06-12,34.4800,34.8950,34.3700,34.7300,1240857
2019-06-11,34.2700,34.4600,34.1200,34.3800,915751
2019-06-10,34.7400,34.7400,34.1450,34.3300,1194506
2019-06-07,34.9400,35.0850,34.7300,34.8100,1108630
2019-06-06,34.9600,35.0250,34.4800,34.7000,1638797
2019-06-05,34.3500,34.9200,34.2500,34.9100,1412478
2019-06-04,34.5700,34.7050,33.8500,34.2400,2050158
2019-06-03,34.3300,34.6200,34.2500,34.5800,1617005
2019-05-31,33.5900,34.3950,33.5200,34.2200,2173062
2019-05-30,33.6800,33.9800,33.5850,33.6200,1605877
2019-05-29,34.3600,34.3600,33.6000,33.6300,1718589
2019-05-28,34.8300,35.0000,34.2100,34.3800,2016208
2019-05-24,34.7200,34.9400,34.7200,34.7400,858636
2019-05-23,34.2200,34.6600,34.2100,34.5800,1195465
2019-05-22,33.9100,34.2400,33.8800,34.2300,1782183
2019-05-21,33.9100,34.1800,33.8900,34.0300,759143
2019-05-20,34.0500,34.1200,33.7050,33.7700,1556376
2019-05-17,34.0400,34.1550,33.7900,34.0800,1094677
2019-05-16,33.8000,34.2100,33.7500,34.1100,1111480
2019-05-15,34.0400,34.2694,33.8600,33.9600,1173194
2019-05-14,33.8800,34.0400,33.7600,33.9000,1142862
2019-05-13,33.4100,33.8600,33.4100,33.7700,1233895
2019-05-10,33.1600,33.6700,33.0950,33.5900,1736710
2019-05-09,33.0600,33.4400,32.6300,33.1700,1641479
2019-05-08,32.8500,33.3200,32.8300,33.0600,1610964
2019-05-07,33.3900,33.4300,32.6700,32.9000,2490022
2019-05-06,33.5000,33.8100,33.2900,33.4000,1235272
2019-05-03,33.6100,33.8000,33.2000,33.7600,1879463
2019-05-02,33.1000,33.9700,33.0000,33.4300,1742073
2019-05-01,33.1800,33.6600,33.1450,33.2900,1512099
2019-04-30,32.9600,33.4150,32.7900,33.3200,1365738
2019-04-29,33.1900,33.2850,32.9300,33.0400,1352092
2019-04-26,33.2100,33.4900,33.0600,33.2100,1022153
2019-04-25,32.7900,33.1200,32.6100,33.0500,1210566
2019-04-24,32.6600,33.0900,32.6100,32.8900,1207597
2019-04-23,32.2900,32.6100,32.0200,32.4900,1835693
2019-04-22,32.0300,32.0990,31.6000,31.9800,1603880
2019-04-18,31.6000,32.1500,31.4800,32.1400,1871255
2019-04-17,32.0800,32.1200,31.3400,31.5500,1898402
2019-04-16,33.3900,33.3900,31.7900,32.0600,2993126
2019-04-15,33.5000,33.5500,33.1800,33.3800,1072318
2019-04-12,33.2200,33.4500,32.9200,33.4500,1101881
2019-04-11,33.4000,33.5400,33.3300,33.3900,1027402
2019-04-10,33.1700,33.4300,33.0500,33.3700,963207
2019-04-09,33.2200,33.2764,32.9800,33.0300,679699
2019-04-08,33.4500,33.5000,33.1200,33.1600,1111620
2019-04-05,33.1200,33.4700,33.0850,33.4700,1528054
2019-04-04,33.2700,33.3000,33.0100,33.1700,1275312
2019-04-03,33.3000,33.4600,33.0100,33.3000,1487570
2019-04-02,33.3700,33.4000,33.0250,33.3800,1854349
2019-04-01,33.5600,33.5600,32.9700,33.3100,1532208
2019-03-29,33.6000,33.6050,33.3300,33.5000,1202678
2019-03-28,33.2200,33.6100,33.1700,33.5700,1694926
2019-03-27,34.0000,34.1000,33.4700,33.5300,2413003
2019-03-26,33.4800,33.9800,33.3800,33.9700,1797687
2019-03-25,33.1300,33.5600,32.8300,33.4500,1373464
2019-03-22,33.2000,33.5100,33.0779,33.1500,1637689
2019-03-21,32.5200,33.4050,32.5000,33.1800,1721942
2019-03-20,32.3000,32.8171,32.0900,32.6100,1331440
2019-03-19,32.3000,32.3700,32.1400,32.2100,957052
2019-03-18,32.4600,32.5300,32.1100,32.2900,1276474
2019-03-15,32.6000,32.6300,32.3100,32.3500,3063310
2019-03-14,32.8000,32.8200,32.5100,32.5500,2970237
2019-03-13,32.8200,32.9400,32.6900,32.7000,1386157
2019-03-12,32.6300,32.8000,32.6300,32.7000,1427354
2019-03-11,32.4300,32.5800,32.2500,32.5400,1215154
2019-03-08,32.3000,32.5400,32.1300,32.2900,1359179
2019-03-07,32.4400,32.7200,32.2500,32.3800,2108832
2019-03-06,32.4000,32.4700,32.1700,32.2800,1203396
2019-03-05,31.9800,32.4000,31.9000,32.3900,1285449
2019-03-04,32.1000,32.2700,31.7500,32.0700,1411152
2019-03-01,32.4700,32.5200,31.4250,32.0000,2688296
2019-02-28,32.2500,32.9000,32.1350,32.4700,2584850
2019-02-27,32.0100,32.4100,31.7900,32.2800,1856445
2019-02-26,32.6000,32.6600,32.1900,32.2200,1800004
2019-02-25,32.7500,32.7600,32.4200,32.4600,1521327
2019-02-22,32.5200,32.7600,32.3200,32.7100,2035056
2019-02-21,32.1900,32.5500,31.7000,32.4900,1323879
2019-02-20,32.3700,32.4800,31.8100,32.0800,1554560
2019-02-19,32.5200,32.6800,32.3200,32.4400,1773164
2019-02-15,32.0400,32.5200,31.8800,32.5100,2337430
2019-02-14,31.8300,32.0800,31.7500,31.9600,977870
2019-02-13,31.6700,31.9200,31.3700,31.8700,1914037
2019-02-12,32.4500,32.5100,31.6642,31.6900,1849545
2019-02-11,32.5900,32.5900,32.2800,32.4200,1501778
2019-02-08,32.2000,32.4771,32.1700,32.4200,917228
2019-02-07,31.8700,32.4200,31.7000,32.3000,1006167
2019-02-06,31.9900,32.0900,31.7700,31.8700,1099462
2019-02-05,32.0400,32.1190,31.6800,32.0400,1044592
2019-02-04,31.5200,31.9900,31.2700,31.9900,1303663
2019-02-01,32.3500,32.5300,31.2600,31.6700,2657937
2019-01-31,31.6500,32.3200,31.4500,32.3200,2253918
2019-01-30,31.3300,31.9600,31.3300,31.6400,1800856
2019-01-29,31.0500,31.4800,31.0500,31.2800,2615989
2019-01-28,30.6000,31.1100,30.5300,31.0500,1618683
2019-01-25,30.1100,30.6600,30.1100,30.6100,3473840
2019-01-24,30.0900,30.2500,29.9500,30.1100,1467765
2019-01-23,30.3800,30.4083,29.8900,30.0100,1849695
2019-01-22,30.0200,30.4200,29.8400,30.3300,2001546
2019-01-18,30.0900,30.1690,29.8300,30.0200,1643524
2019-01-17,30.0700,30.1900,29.8500,30.0900,1774613
2019-01-16,29.4300,30.0600,29.4300,30.0600,2419706
2019-01-15,29.4600,29.7767,29.4350,29.6700,1118739
2019-01-14,29.3300,29.5500,29.0989,29.4400,1441011
2019-01-11,29.3000,29.4400,29.0900,29.3400,1510471
2019-01-10,28.6400,29.3200,28.4750,29.2300,1476739
2019-01-09,28.7000,28.8000,28.2300,28.7000,1084159
2019-01-08,28.3600,28.7337,28.1700,28.6800,1410274
2019-01-07,28.0000,28.3500,27.9200,28.1600,1445448
2019-01-04,27.7100,28.0900,27.6800,27.8300,1689994
2019-01-03,27.4300,28.1500,27.4100,27.6800,2908025
2019-01-02,28.0600,28.0800,27.3500,27.4600,1897201
2018-12-31,28.6300,28.6300,27.9200,28.3100,2387290
2018-12-28,28.8900,28.9000,28.3000,28.5500,1798759
2018-12-27,28.7000,28.7900,28.0500,28.7800,1885141
2018-12-26,28.0500,28.8500,27.6800,28.8100,1691910
2018-12-24,29.0500,29.0900,27.7600,27.8500,1473488
2018-12-21,29.3600,29.8400,29.0400,29.0500,3139500
2018-12-20,29.7500,29.9500,29.1150,29.4300,2127787
2018-12-19,29.7900,30.0300,29.4700,29.7500,2097060
2018-12-18,29.8800,30.1000,29.6900,29.7700,2755221
2018-12-17,30.9100,31.0500,29.6550,29.7300,2278374
2018-12-14,30.7000,30.9050,30.5900,30.8500,1459340
2018-12-13,30.1700,30.8400,30.1700,30.8000,2257605
2018-12-12,30.9200,30.9850,30.1100,30.1500,1532686
2018-12-11,30.6100,30.9200,30.5834,30.8200,2027509
2018-12-10,30.7500,30.8100,30.2900,30.5600,1971392
2018-12-07,30.7100,30.8700,30.4900,30.6800,1601696
2018-12-06,29.9900,30.8600,29.7800,30.8500,2651831
2018-12-04,30.0300,30.5000,29.8950,30.0500,2807996
2018-12-03,29.9600,30.0400,29.7200,30.0300,1608196
2018-11-30,29.8500,30.0700,29.7600,29.9600,2311503
2018-11-29,29.5900,29.8800,29.4900,29.7400,2645456
2018-11-28,29.3100,29.7200,29.2900,29.5200,1500908
2018-11-27,29.2100,29.4700,29.1000,29.4500,1504099
2018-11-26,29.4900,29.5000,29.0500,29.1400,989883
2018-11-23,29.1600,29.4750,28.9400,29.3500,825962
2018-11-21,29.0100,29.4100,28.8800,29.1700,2148039
2018-11-20,28.9700,29.1400,28.8350,29.0100,2186282
2018-11-19,29.3700,29.5000,28.9000,29.0700,1680373
2018-11-16,28.9900,29.3700,28.8900,29.3500,1608065
2018-11-15,29.3400,29.4600,28.6650,29.0000,2930362
2018-11-14,29.7200,29.9000,29.3400,29.4300,2431281
2018-11-13,29.8800,29.9300,29.4500,29.6500,1421480
2018-11-12,29.9600,30.2300,29.8500,29.8800,1158198
2018-11-09,29.9000,30.1900,29.8700,29.9600,1459196
2018-11-08,29.7700,29.9750,29.6800,29.9500,1303933
2018-11-07,29.6200,29.9600,29.4600,29.8900,1888953
2018-11-06,29.4600,29.5700,29.1899,29.5200,2055660
2018-11-05,28.9900,29.5800,28.8800,29.4400,2173389
2018-11-02,29.2700,29.3500,28.5100,28.9500,1466243
2018-11-01,29.5100,29.6000,28.9700,29.1800,1511061
2018-10-31,29.5000,29.5200,28.9050,29.0300,2436153
2018-10-30,29.1800,29.8200,29.1200,29.6400,3034727
2018-10-29,29.2000,29.6399,29.1300,29.1800,2059546
2018-10-26,29.5600,29.6900,28.8655,29.0900,2564671
2018-10-25,29.3100,29.7564,29.1100,29.6400,1417795
2018-10-24,28.7300,29.6000,28.6500,29.3500,1867173
2018-10-23,28.1700,28.8400,28.0800,28.6600,1750153
2018-10-22,28.7000,28.8500,28.2200,28.2200,911563
2018-10-19,28.5500,28.7901,28.5400,28.6700,1231154
2018-10-18,28.3600,28.6600,28.2650,28.5000,1752371
2018-10-17,28.2900,28.3800,27.9150,28.3700,2775828
2018-10-16,27.8100,28.4100,27.6400,28.2900,1228302
2018-10-15,27.4000,27.9300,27.4000,27.6800,1002942
2018-10-12,27.6000,27.7850,27.3700,27.4300,1071046
2018-10-11,28.1100,28.1300,27.4000,27.4000,1437033
2018-10-10,28.3500,28.5200,28.0950,28.1000,1209606
2018-10-09,28.1000,28.5750,27.9800,28.4700,1834690
2018-10-08,27.6200,28.2360,27.5600,28.1000,1222616
2018-10-05,27.4100,27.7700,27.3700,27.6000,1413438
2018-10-04,27.2700,27.4750,26.9300,27.4100,1462661
2018-10-03,27.6700,27.9300,27.2800,27.4100,1648873
2018-10-02,27.8900,27.8900,27.6601,27.7000,815972
2018-10-01,27.8500,28.0100,27.6500,27.8200,1376930
2018-09-28,27.4000,27.7900,27.3900,27.7900,1524852
2018-09-27,27.4000,27.5400,27.2300,27.3700,853723
2018-09-26,27.8500,27.8650,27.5300,27.5500,1223531
2018-09-25,27.9900,27.9900,27.5900,27.8500,1742138
2018-09-24,28.0000,28.0600,27.7250,27.9200,1624015
2018-09-21,28.0100,28.1000,27.8350,28.0000,2712293
2018-09-20,27.7700,28.1500,27.5800,28.1200,1587103
2018-09-19,28.3100,28.3100,27.5710,27.7400,1831100
2018-09-18,28.5700,28.6600,28.2288,28.2400,1685365
2018-09-17,28.7100,28.8000,28.4600,28.5700,1615354
2018-09-14,28.8600,28.9000,28.4550,28.6800,1015886
2018-09-13,29.0000,29.0400,28.8500,28.9100,898639
2018-09-12,29.1100,29.1100,28.8100,28.8700,1169356
2018-09-11,28.9200,29.0900,28.8300,28.9600,1216028
2018-09-10,28.9500,29.0850,28.8300,28.8900,868517
2018-09-07,29.0500,29.0700,28.8250,28.8400,1106677
2018-09-06,29.1600,29.5200,29.1100,29.2200,2239043
2018-09-05,28.8600,29.1900,28.7550,29.0800,1319154
2018-09-04,28.8500,29.0000,28.5400,28.9500,2707752
2018-08-31,28.7100,28.9900,28.6500,28.8100,1790241
2018-08-30,28.9700,29.0900,28.6100,28.6800,1217096
2018-08-29,29.0000,29.2200,28.8700,28.9700,1433670
2018-08-28,28.5500,28.9100,28.5000,28.8900,2041828
2018-08-27,28.6900,28.7800,28.4300,28.5400,1463495
2018-08-24,28.5000,28.7750,28.4400,28.6700,1030184
2018-08-23,28.6000,28.7250,28.4600,28.5300,1761264
2018-08-22,28.6700,28.7400,28.4800,28.5700,1188345
2018-08-21,28.8100,28.8500,28.4500,28.6600,1455715
2018-08-20,29.1100,29.1200,28.8300,28.8300,1495829
2018-08-17,28.8100,29.0000,28.7800,29.0000,1240217
2018-08-16,28.6400,28.8300,28.5775,28.7800,1176639
2018-08-15,28.5400,28.8000,28.4500,28.6900,1487421
2018-08-14,28.4100,28.5400,28.4000,28.5100,1508615
2018-08-13,28.3300,28.4200,28.1300,28.3500,1325495
2018-08-10,28.5000,28.6800,28.2700,28.2800,1215949
2018-08-09,28.3700,28.6199,28.3000,28.5000,1355315
2018-08-08,28.5400,28.5499,28.2300,28.3700,1210731
2018-08-07,28.5400,28.5600,28.2568,28.5300,1696732
2018-08-06,28.3200,28.5900,28.1800,28.5600,2406719
2018-08-03,27.8600,28.3360,27.8361,28.2800,1573796
2018-08-02,27.3900,27.9000,27.2100,27.7600,1619688
2018-08-01,27.1800,27.4100,26.9600,27.4100,1710790
2018-07-31,27.3800,27.7110,27.2500,27.4500,1177806
2018-07-30,27.2500,27.3200,26.9700,27.2800,1471128
2018-07-27,27.7000,27.7490,27.2000,27.2300,1987836
2018-07-26,27.6300,27.7600,27.5100,27.5900,1033636
2018-07-25,27.3400,27.7150,27.2700,27.6300,1069770
2018-07-24,27.4000,27.4399,27.2100,27.2700,701908
2018-07-23,27.5400,27.5500,27.2000,27.4400,1049630
2018-07-20,27.6100,27.7500,27.4100,27.5600,821998
2018-07-19,27.3700,27.8400,27.3300,27.7100,1300403
2018-07-18,27.4000,27.4310,27.1750,27.4100,1576232
2018-07-17,27.4100,27.4750,27.3000,27.4300,1107239
2018-07-16,27.5400,27.5800,27.1500,27.3600,921424
2018-07-13,27.5000,27.7400,27.5000,27.5800,867533
2018-07-12,27.5400,27.8000,27.4800,27.7000,736924
2018-07-11,27.4900,27.6950,27.4498,27.5500,1213922
2018-07-10,27.7500,27.9350,27.4900,27.5000,1100128
2018-07-09,27.9700,28.0200,27.5700,27.7300,1160991
2018-07-06,27.8500,28.0500,27.8210,27.9600,1058668
2018-07-05,27.4900,27.8000,27.3600,27.7600,1505038
2018-07-03,27.0500,27.6300,26.9300,27.4000,718038
2018-07-02,27.3700,27.5600,26.8250,26.9600,1401024
2018-06-29,27.0800,27.4500,26.8700,27.4000,1806843
2018-06-28,26.7100,27.2000,26.6410,27.1800,1713673
2018-06-27,27.2500,27.3000,26.9400,27.0300,1354387
2018-06-26,27.0900,27.3100,27.0900,27.1600,1158732
2018-06-25,27.2000,27.2500,26.9100,27.0500,1294573
2018-06-22,27.1700,27.2500,26.9600,27.2300,2519802
2018-06-21,27.0900,27.1700,26.9600,27.1600,1854511
2018-06-20,26.7600,27.1600,26.6500,27.0800,1789107
2018-06-19,26.6800,26.8600,26.6000,26.6500,1492389
2018-06-18,26.8000,26.9600,26.6200,26.7700,1004165
2018-06-15,26.9300,27.0500,26.7600,26.8700,2261774
2018-06-14,26.7300,26.9400,26.6500,26.8800,1126775
2018-06-13,27.0300,27.1400,26.5600,26.6100,1146372
2018-06-12,26.8500,27.1950,26.8350,27.0000,1384600
2018-06-11,26.8500,26.9600,26.7100,26.8600,1083249
2018-06-08,26.8700,27.0850,26.8100,26.8800,1813181
2018-06-07,26.7900,26.9400,26.6500,26.9000,1141925
2018-06-06,26.5700,26.8050,26.4800,26.7800,1206091
2018-06-05,26.6300,26.6500,26.4400,26.5900,1605415
2018-06-04,26.6300,26.8300,26.4150,26.5300,1551850
2018-06-01,26.7100,26.7200,26.4300,26.5000,1829473
2018-05-31,27.0100,27.0700,26.7700,26.8000,1345989
2018-05-30,26.8100,27.2250,26.6500,27.0100,1234808
2018-05-29,26.4100,26.8425,26.2600,26.7700,1600787
2018-05-25,26.1600,26.4700,26.0700,26.4100,1096127
2018-05-24,26.3100,26.3600,26.0400,26.1000,1384650
2018-05-23,25.9100,26.3800,25.8500,26.2200,1272030
2018-05-22,25.8700,25.9200,25.7000,25.8300,1012746
2018-05-21,25.6400,25.9200,25.4700,25.8700,904922
2018-05-18,25.6300,25.6900,25.3700,25.5700,796784
2018-05-17,25.5300,25.6300,25.4300,25.5300,920018
2018-05-16,25.6900,25.8999,25.5100,25.5600,1285332
2018-05-15,25.6900,25.7000,25.3800,25.5200,1879292
2018-05-14,26.0600,26.1500,25.7500,25.8000,1308669
2018-05-11,26.4300,26.4500,26.0100,26.1200,1247263
2018-05-10,26.1200,26.3100,26.0700,26.3100,1060522
2018-05-09,25.8800,26.2200,25.7900,26.1200,1648227
2018-05-08,25.9700,26.0900,25.8700,25.9000,1329179
2018-05-07,25.8200,26.0600,25.7100,25.9700,2097800
2018-05-04,25.1900,25.8400,25.1600,25.7400,1764266
2018-05-03,24.9300,25.2600,24.8000,25.1000,1754892
2018-05-02,25.2600,25.3300,24.9150,24.9300,3527123
2018-05-01,25.2500,25.4350,25.0700,25.3300,1429025
2018-04-30,25.4400,25.5400,25.1000,25.2300,1075935
2018-04-27,25.1200,25.5150,25.0900,25.3900,1044942
2018-04-26,24.8600,25.2700,24.7980,25.1100,1335764
2018-04-25,24.4400,24.8400,24.3500,24.7600,1404121
2018-04-24,24.2000,24.6700,24.1900,24.5500,1336961
2018-04-23,24.3200,24.3500,24.0400,24.1400,1390753
2018-04-20,24.7300,24.7800,24.2800,24.3000,1679192
2018-04-19,25.0500,25.0900,24.5000,24.6500,986683
2018-04-18,25.1800,25.3350,25.0550,25.1100,641023
2018-04-17,24.8000,25.3250,24.6900,25.1600,1250224
2018-04-16,24.7000,24.9300,24.5400,24.8000,1161917
2018-04-13,24.5600,24.7600,24.4600,24.6600,1446795
2018-04-12,25.1100,25.1100,24.5100,24.5100,1421820
2018-04-11,25.0000,25.3800,24.9800,25.1800,1054925
2018-04-10,25.2000,25.2200,25.0100,25.0600,991451
2018-04-09,25.1400,25.3700,25.0400,25.1200,1304985
2018-04-06,25.3200,25.5800,25.0200,25.0800,1816431
2018-04-05,25.4400,25.4850,25.1900,25.2700,1679537
2018-04-04,25.0500,25.5500,25.0200,25.5300,1521505
2018-04-03,24.7800,25.2300,24.6700,25.1700,1301026
2018-04-02,24.8400,25.2050,24.6850,24.7500,1850957
2018-03-29,24.8500,24.9300,24.6400,24.8200,1568795
2018-03-28,24.2700,24.9300,24.2700,24.7700,1611297
2018-03-27,24.5000,24.8300,24.1950,24.5200,1974295
2018-03-26,24.4400,24.4800,24.1000,24.4200,1844126
2018-03-23,24.5300,24.5800,24.1800,24.2700,1378379
2018-03-22,24.3700,24.8350,24.3400,24.4600,2507015
2018-03-21,24.4500,24.5800,24.2500,24.4000,1575478
2018-03-20,24.4600,24.5950,24.3300,24.4800,2527023
2018-03-19,24.5000,24.5125,24.2600,24.3800,1382033
2018-03-16,24.4100,24.5800,24.3100,24.5000,1962197
2018-03-15,24.4700,24.6300,24.3800,24.4900,1891476
2018-03-14,24.8300,24.9900,24.4700,24.5000,1869561
2018-03-13,24.9500,25.0600,24.7000,24.8000,1342576
2018-03-12,24.6900,24.9400,24.6100,24.8200,1596180
2018-03-09,24.5300,24.7000,24.2700,24.6900,1273360
2018-03-08,24.6700,24.8800,24.4400,24.6000,1099192
2018-03-07,24.4800,24.7300,24.3210,24.5300,3958586
2018-03-06,24.2800,24.6600,24.0900,24.5000,2169042
2018-03-05,24.0000,24.3600,23.9500,24.2900,1786257
2018-03-02,23.7900,24.0650,23.6100,23.9900,3052219
2018-03-01,23.8600,24.2300,23.7300,23.8700,3581614
2018-02-28,23.7200,24.0150,23.6500,23.8400,3263883
2018-02-27,24.0100,24.1400,23.5600,23.5800,1683732
2018-02-26,24.1300,24.2380,23.8150,23.9700,2151014
2018-02-23,23.8800,24.0300,23.6700,23.9800,1086376
2018-02-22,23.2700,23.9000,23.2700,23.7300,2092780
2018-02-21,23.3600,23.5400,22.8700,22.9000,2533446
2018-02-20,23.7500,23.9200,23.3700,23.4000,1578324
2018-02-16,23.7200,23.9700,23.6600,23.8200,2141118
2018-02-15,23.5000,23.7200,23.3800,23.6300,1482728
2018-02-14,23.1400,23.5150,22.9400,23.4100,1864797
2018-02-13,23.4300,23.5600,22.9200,23.3800,1898729
2018-02-12,23.2900,23.5600,22.6010,23.4400,2883717
2018-02-09,22.6200,23.4400,22.5200,23.1800,3090085
2018-02-08,23.0100,23.2300,22.5100,22.5200,3714790
2018-02-07,23.2000,23.5500,23.0100,23.0100,3622280
2018-02-06,22.7900,23.4600,22.5600,23.1900,2921861
2018-02-05,23.6300,23.8200,23.0200,23.0300,1603413
2018-02-02,23.7500,23.7700,23.2900,23.7100,1345552
2018-02-01,24.5000,24.6500,23.7800,23.8700,2217854
2018-01-31,24.1600,24.5700,24.1400,24.5100,1431494
2018-01-30,24.1900,24.3600,24.0600,24.0600,1527766
2018-01-29,24.6200,24.6550,24.1000,24.4600,1165480
2018-01-26,24.9600,24.9600,24.5100,24.6200,597559
2018-01-25,24.8800,25.0200,24.6050,24.8000,1076476
2018-01-24,25.0900,25.2100,24.7700,24.9000,633853
2018-01-23,24.9100,25.1500,24.8200,25.1300,726946
2018-01-22,24.1500,24.8000,24.1400,24.7900,1399154
2018-01-19,24.1200,24.2358,23.9500,24.1400,1816167
2018-01-18,24.6600,24.6750,24.1600,24.1700,1699554
2018-01-17,24.7300,24.7900,24.5750,24.7600,1214222
2018-01-16,24.6000,24.7300,24.5000,24.6000,1703053
2018-01-12,24.7300,24.7900,24.3300,24.4700,1712306
2018-01-11,24.7300,24.9600,24.7100,24.8100,1096586
2018-01-10,25.1300,25.1300,24.5000,24.7000,2098853
2018-01-09,25.3200,25.3500,25.0400,25.0900,1719014
2018-01-08,25.4100,25.4750,25.1400,25.3200,1607122
2018-01-05,25.5100,25.5300,25.1950,25.3500,1100420
2018-01-04,25.8000,25.8700,25.4800,25.5000,1191139
2018-01-03,25.8000,26.1000,25.8000,25.9000,1344340
2018-01-02,26.1100,26.1100,25.7450,25.8400,1290308
2017-12-29,26.1100,26.1700,25.8950,26.0400,1267326
2017-12-28,25.7900,26.0450,25.6000,26.0300,852528
2017-12-27,25.8900,26.0700,25.7800,26.0400,895663
2017-12-26,25.5100,26.0100,25.5000,25.7600,878004
2017-12-22,25.5000,25.5900,25.3300,25.5500,924400
2017-12-21,25.5400,25.5900,25.3100,25.3700,1243200
2017-12-20,25.7600,25.8300,25.4900,25.4900,1673927
2017-12-19,26.1950,26.2500,25.5800,25.6300,1686302
2017-12-18,26.2400,26.3700,26.0100,26.1400,1322706
2017-12-15,25.9950,26.1600,25.8500,25.9300,2608530
2017-12-14,26.0100,26.1500,25.8800,25.9000,1181886
2017-12-13,25.8200,26.2250,25.8200,26.1700,1388408
2017-12-12,25.7500,25.9700,25.6998,25.7500,1086233
2017-12-11,25.7600,25.8700,25.6200,25.7400,538562
2017-12-08,25.7800,25.8800,25.6800,25.8100,804397
2017-12-07,25.4700,25.6800,25.4100,25.6500,816626
2017-12-06,25.5200,25.5800,25.3700,25.5000,744952
2017-12-05,25.9100,25.9600,25.4800,25.4800,824363
2017-12-04,25.9500,26.2400,25.8900,25.9500,876119
2017-12-01,25.9100,26.0950,25.8800,25.9300,1540038
2017-11-30,25.8500,25.9500,25.7400,25.8200,869819
2017-11-29,25.7400,25.9500,25.6500,25.7900,761555
2017-11-28,25.9500,26.0500,25.7000,25.8400,723488
2017-11-27,26.1900,26.2200,25.9500,26.0800,900163
2017-11-24,26.3700,26.4500,26.0100,26.1200,547222
2017-11-22,26.0600,26.5800,26.0600,26.3700,1470351
2017-11-21,25.9700,26.3450,25.9700,26.2500,913907
2017-11-20,26.1800,26.2400,25.9500,25.9800,618959
2017-11-17,25.9000,26.3000,25.8500,26.2500,920928
2017-11-16,25.7700,25.9600,25.6300,25.8900,1133473
2017-11-15,26.0000,26.0800,25.7800,25.7900,1432063
2017-11-14,26.0800,26.1500,25.8900,26.0200,1198275
2017-11-13,26.0500,26.3000,26.0100,26.1700,1226495
2017-11-10,25.8000,26.0700,25.7600,25.9500,810780
2017-11-09,26.0000,26.2500,25.9000,25.9400,970704
2017-11-08,26.1000,26.3500,26.0050,26.1100,1765136
2017-11-07,25.8000,26.2600,25.7448,26.1000,2041861
2017-11-06,25.6200,26.0700,25.5994,25.7800,1690974
2017-11-03,25.0900,25.6000,24.8750,25.5300,2304899
2017-11-02,25.2000,25.4200,24.7600,25.2300,2817121
2017-11-01,24.7000,24.8100,24.5350,24.7000,1474684
2017-10-31,24.6300,24.7300,24.3600,24.6900,1176495
2017-10-30,24.5400,24.9300,24.4800,24.5500,1515081
2017-10-27,24.3200,24.6200,24.1400,24.5400,988770
2017-10-26,24.6000,24.6100,24.1100,24.2900,2025666
2017-10-25,24.9400,25.0200,24.3600,24.5400,1670827
2017-10-24,25.0200,25.2700,24.9699,25.0100,1476446
2017-10-23,25.3800,25.3800,24.9900,25.0600,1696343
2017-10-20,25.5500,25.5900,25.1100,25.3100,1775868
2017-10-19,25.7200,25.9500,25.5100,25.6400,1837174
2017-10-18,25.7700,25.8800,25.4650,25.7500,2253028
2017-10-17,25.7200,26.1100,25.6400,25.8600,1626201
2017-10-16,25.4700,25.8750,25.3300,25.7700,1348012
2017-10-13,25.4300,25.7900,25.3000,25.5000,2186635
2017-10-12,25.1300,25.3000,24.9650,25.3000,874928
2017-10-11,25.0000,25.2800,25.0000,25.1100,1345033
2017-10-10,25.0300,25.3000,24.9200,25.0000,1661762
2017-10-09,24.9500,25.0300,24.8650,24.9600,1001193
2017-10-06,24.9300,24.9900,24.6300,24.8700,1147841
2017-10-05,25.0900,25.3400,25.0300,25.0600,1344020
2017-10-04,25.2000,25.2000,24.9200,25.1200,1766016
2017-10-03,25.2500,25.2700,25.0450,25.1900,1744726
2017-10-02,24.9800,25.1700,24.9500,25.1400,1977515
2017-09-29,24.8300,25.0700,24.7600,24.8700,1616112
2017-09-28,24.8300,24.9600,24.6700,24.8000,1895497
2017-09-27,25.5000,25.5100,25.0200,25.0800,2260017
2017-09-26,25.5200,25.7200,25.4500,25.5500,1165766
2017-09-25,25.5400,25.7300,25.4250,25.4600,1304870
2017-09-22,25.5700,25.7900,25.4250,25.4800,1109305
2017-09-21,25.4600,25.8500,25.4200,25.5100,2063674
2017-09-20,26.0000,26.0200,25.3750,25.5200,2211906
2017-09-19,25.8000,26.0500,25.7600,25.8900,1986475
2017-09-18,26.0100,26.1400,25.6600,25.7400,2553413
2017-09-15,25.9300,26.0580,25.7300,26.0100,1312509
2017-09-14,25.7000,26.0000,25.5900,25.9300,1317007
2017-09-13,25.7800,25.8950,25.5800,25.7000,1341709
2017-09-12,26.0000,26.1400,25.5900,25.7200,1493060
2017-09-11,25.7200,26.0300,25.7000,25.8900,1477415
2017-09-08,25.4100,25.7500,25.4100,25.7200,1194646
2017-09-07,25.3900,25.5500,25.3300,25.5000,1169587
2017-09-06,25.3400,25.8000,25.2200,25.2900,1722103
2017-09-05,25.6500,25.7400,25.2250,25.2900,1572097
2017-09-01,25.4500,25.7200,25.2800,25.5600,1268375
2017-08-31,25.2600,25.6801,25.1701,25.3800,1903185
2017-08-30,24.8400,25.0800,24.7100,25.0800,1040653
2017-08-29,24.8400,24.9700,24.7600,24.8400,941230
2017-08-28,25.1300,25.1476,24.6700,24.8400,1134883
2017-08-25,24.9000,25.1800,24.8500,25.0300,898759
2017-08-24,25.0000,25.1600,24.8200,24.8200,892678
2017-08-23,24.7900,25.0700,24.7100,24.9300,883896
2017-08-22,25.0500,25.1400,24.7350,24.7900,1146977
2017-08-21,24.9500,25.2300,24.7600,25.0900,2253493
2017-08-18,25.0700,25.1400,24.5500,24.8600,2353222
2017-08-17,25.0100,25.3250,24.9900,25.0700,2661863
2017-08-16,24.5500,25.3900,24.5500,25.0100,3613599
2017-08-15,24.2100,24.5200,23.8000,24.5100,2935074
2017-08-14,23.8400,24.3700,23.7900,24.2400,2032805
2017-08-11,23.7700,23.8300,23.4400,23.7000,1286366
2017-08-10,23.8900,24.0700,23.8200,23.8600,996959
2017-08-09,23.8300,24.0899,23.6700,23.9000,1021509
2017-08-08,23.7600,24.0000,23.5950,23.8000,2795157
2017-08-07,24.0100,24.0400,23.7200,23.8400,993669
2017-08-04,23.5300,24.1000,23.4900,23.9700,1518085
2017-08-03,23.4000,23.6250,23.2000,23.6200,1431456
2017-08-02,23.5700,23.6200,23.2100,23.4000,1464049
2017-08-01,23.4800,23.7600,23.4800,23.5800,1711959
2017-07-31,23.6100,23.6400,23.2500,23.3900,1749828
2017-07-28,23.7500,23.8200,23.5400,23.6000,952203
2017-07-27,23.5500,24.0400,23.3400,23.7300,1589717
2017-07-26,23.2800,23.7100,23.2800,23.5800,1455712
2017-07-25,23.2800,23.3300,23.1600,23.2800,1701582
2017-07-24,23.3000,23.3650,23.0500,23.2400,1167390
2017-07-21,23.5000,23.6100,23.1000,23.2700,1249022
2017-07-20,23.5500,23.7700,23.3900,23.4000,1612143
2017-07-19,23.3200,23.4500,23.1600,23.4000,1947392
2017-07-18,23.4700,23.4900,23.1100,23.2300,2551811
2017-07-17,23.1200,23.5900,23.1000,23.5200,2082026
2017-07-14,23.0600,23.3600,23.0300,23.0700,2753157
2017-07-13,22.5200,22.9800,22.4000,22.9500,2001650
2017-07-12,22.1800,22.6300,22.1200,22.4800,2265846
2017-07-11,21.7800,22.0400,21.5900,22.0200,1997772
2017-07-10,22.2600,22.3996,21.7100,21.7500,2344138
2017-07-07,22.2000,22.2900,22.0300,22.2600,1815383
2017-07-06,22.3100,22.4400,22.0450,22.1500,2078024
2017-07-05,23.0000,23.0199,22.3500,22.3700,2550369
2017-07-03,22.5400,23.0200,22.5200,23.0000,1006556
2017-06-30,22.9500,23.0300,22.4000,22.4500,2498305
2017-06-29,23.0300,23.4000,22.7700,22.8300,3365706
2017-06-28,22.6200,23.2300,22.5200,23.0600,4310574
2017-06-27,23.1500,23.2500,22.5400,22.6900,7275096
2017-06-26,22.6000,23.1500,22.2100,23.1100,9112228
2017-06-23,20.5000,20.8900,20.4100,20.7700,2249262
2017-06-22,20.2400,20.5400,20.0800,20.5000,1892719
2017-06-21,20.6500,20.7279,20.1400,20.2500,890032
2017-06-20,20.8200,20.8400,20.5100,20.6300,741203
2017-06-19,21.0800,21.1400,20.6700,20.7200,1161295
2017-06-16,21.0500,21.1300,20.7900,21.1200,2145679
2017-06-15,20.5700,21.0400,20.5150,21.0100,1827176
2017-06-14,21.4600,21.4600,20.5900,20.7300,1670257
2017-06-13,20.6600,20.7200,20.4150,20.7000,1454284
2017-06-12,20.3000,20.7500,20.3000,20.6800,1262880
2017-06-09,20.3300,20.3900,20.0900,20.3000,1754460
2017-06-08,20.7400,20.7900,20.2500,20.3300,971187
2017-06-07,20.3800,20.8000,20.3400,20.7200,1536933
2017-06-06,20.6600,20.7200,20.2600,20.3300,1637917
2017-06-05,20.8200,20.8499,20.4500,20.5600,1025852
2017-06-02,20.8600,21.0900,20.8000,20.9400,1917922
2017-06-01,20.4800,20.7700,20.3200,20.7400,1904071
2017-05-31,20.6000,20.7500,20.3800,20.3800,1532717
2017-05-30,20.6000,20.7800,20.5600,20.6000,1117851
2017-05-26,20.8000,20.8600,20.5500,20.5600,1039036
2017-05-25,20.8000,20.8900,20.6300,20.7500,1240306
2017-05-24,20.5200,20.7856,20.5000,20.7600,1050796
2017-05-23,20.7300,20.8100,20.4450,20.5000,962773
2017-05-22,20.4000,20.7000,20.4000,20.6500,1852681
2017-05-19,20.2600,20.5700,20.1000,20.4300,3232688
2017-05-18,19.9200,20.4250,19.6700,20.3400,3763436
2017-05-17,19.8000,20.0200,19.7690,19.9100,3151576
2017-05-16,20.3700,20.4300,19.6500,19.7700,2809620
2017-05-15,20.3200,20.6500,20.2700,20.3700,2088951
2017-05-12,20.0200,20.3100,19.9200,20.2800,3430218
2017-05-11,20.3000,20.3000,19.7200,19.9300,3307608
2017-05-10,20.3100,20.6600,20.2000,20.3000,3535987
2017-05-09,21.0300,21.1500,20.3200,20.3600,2693437
2017-05-08,21.0100,21.1800,20.7450,21.0900,5634746
2017-05-05,21.1900,21.3100,20.7100,20.9100,8106921
2017-05-04,23.0500,23.1300,20.9600,21.1300,6946478
2017-05-03,23.7900,23.8400,23.1300,23.1300,1709765
2017-05-02,24.0400,24.0900,23.6000,23.7100,1991735
2017-05-01,24.0000,24.1900,23.8500,23.9700,1205869
2017-04-28,24.3700,24.3800,23.9500,23.9900,1215961
2017-04-27,24.5300,24.7100,24.4400,24.5000,776023
2017-04-26,24.7100,24.8200,24.4600,24.5000,842970
2017-04-25,24.6800,24.8700,24.6700,24.8100,871864
2017-04-24,25.1600,25.2650,24.4500,24.7900,1597136
2017-04-21,25.1700,25.1700,24.9999,25.1300,750217
2017-04-20,25.0200,25.1000,24.7500,25.0900,1117442
2017-04-19,25.2200,25.2200,24.9200,25.1000,1504735
2017-04-18,25.0800,25.3200,25.0600,25.3000,1198109
2017-04-17,24.8800,25.0900,24.8800,25.0800,763037
2017-04-13,24.8600,25.0500,24.8200,24.8900,929880
2017-04-12,24.8200,25.0700,24.7000,24.8800,2068125
2017-04-11,24.7200,24.9700,24.6000,24.8200,2062319
2017-04-10,24.5700,24.6400,24.3300,24.5900,962541
2017-04-07,24.6500,24.8100,24.5000,24.5000,2104072
2017-04-06,24.1000,24.6300,23.9900,24.6200,3054796
2017-04-05,24.1400,24.1800,23.9800,24.1100,1831273
2017-04-04,23.9600,24.1400,23.8600,24.1100,2342490
2017-04-03,23.9200,24.2000,23.7900,24.0100,1568840
2017-03-31,24.0200,24.0700,23.8600,23.8800,2871168
2017-03-30,23.8800,24.0900,23.7300,24.0800,2142023
2017-03-29,23.9800,24.3100,23.8700,23.9900,3538461
2017-03-28,23.5000,24.3000,23.4600,24.2800,9542714
2017-03-27,23.8100,24.0450,23.4250,23.4600,1839683
2017-03-24,23.5000,23.7700,23.4600,23.7100,1098523
2017-03-23,23.6000,23.8700,23.4700,23.4700,1022404
2017-03-22,23.8200,23.8300,23.3700,23.6100,2251443
2017-03-21,23.5000,23.8200,23.4800,23.7600,1195298
2017-03-20,23.6400,23.7000,23.3350,23.5000,1023482
2017-03-17,23.5600,23.6700,23.2900,23.6400,3039048
2017-03-16,23.2400,23.5400,23.1500,23.2600,1290592
2017-03-15,22.8100,23.5300,22.7700,23.2500,2227789
2017-03-14,22.5600,22.7300,22.2700,22.6700,1170061
2017-03-13,22.5600,22.6400,22.3900,22.5000,2384647
2017-03-10,22.7500,22.9900,22.3900,22.4800,1129741
2017-03-09,23.0800,23.3350,22.5000,22.5300,1024929
2017-03-08,23.6200,23.6900,23.0500,23.0800,735402
2017-03-07,23.7400,23.9300,23.6950,23.8000,584874
2017-03-06,24.0000,24.0000,23.6703,23.8100,968457
2017-03-03,24.2400,24.2600,23.8483,24.0600,989404
2017-03-02,24.2200,24.5750,24.2200,24.2600,933470
2017-03-01,24.6400,24.7200,24.2000,24.3800,1584005
2017-02-28,25.1100,25.1900,24.8600,24.9100,1753683
2017-02-27,25.0300,25.3200,24.7900,25.2500,1253267
2017-02-24,24.6800,25.0700,24.5200,25.0200,1463088
2017-02-23,24.6500,24.7200,24.2900,24.7000,1168458
2017-02-22,24.6500,24.6500,24.3500,24.4900,1159996
2017-02-21,24.2300,24.6300,23.9800,24.5900,1006119
2017-02-17,24.3900,24.4100,23.9800,24.2100,1292261
2017-02-16,24.0500,24.3600,24.0500,24.3000,1168096
2017-02-15,24.0200,24.0700,23.7800,23.9900,1787506
2017-02-14,24.5900,24.5900,24.0700,24.1400,1386925
2017-02-13,24.6000,24.7000,24.3500,24.6100,1033613
2017-02-10,24.6800,24.7900,24.4640,24.7300,1151504
2017-02-09,24.3900,24.5600,24.2738,24.3900,873979
2017-02-08,24.1400,24.4800,24.1400,24.3700,656448
2017-02-07,24.0000,24.1600,23.9400,24.0500,1165550
2017-02-06,23.9400,23.9950,23.7200,23.9500,1252086
2017-02-03,23.7700,23.9300,23.4600,23.8900,1759127
2017-02-02,23.2700,23.5700,23.2020,23.5600,2241014
2017-02-01,23.5200,23.7100,22.9000,23.1900,2524120
2017-01-31,23.4400,23.9100,23.3700,23.6600,2541823
2017-01-30,23.7700,23.7800,22.9800,23.3700,3050493
2017-01-27,24.7900,24.8500,23.7100,23.8100,3510568
2017-01-26,24.9200,25.0700,24.5700,24.7000,1442733
2017-01-25,25.2300,25.2900,24.8600,24.9000,913552
2017-01-24,25.6100,25.6900,25.0450,25.2200,1281121
2017-01-23,25.3500,25.7000,25.1300,25.5800,1772347
2017-01-20,25.1500,25.2414,25.0200,25.2400,1107232
2017-01-19,25.5000,25.5200,25.0100,25.2000,1090113
2017-01-18,25.7800,25.9000,25.5850,25.6600,740980
2017-01-17,25.4600,25.8400,25.2900,25.8400,1259889
2017-01-13,25.4400,25.5600,25.2000,25.3000,843318
2017-01-12,25.1100,25.4150,25.0000,25.3900,1189842
2017-01-11,25.1800,25.4500,25.0100,25.0900,1393670
2017-01-10,25.2300,25.3800,25.0000,25.1100,1383856
2017-01-09,25.4900,25.5100,25.0250,25.1900,726760
2017-01-06,25.4700,25.6900,25.4100,25.4400,665610
2017-01-05,25.0700,25.6900,25.0000,25.6200,1258474
2017-01-04,24.8200,25.2850,24.7650,25.1400,1570639
2017-01-03,24.7900,24.8700,24.4100,24.7100,873829
2016-12-30,24.3200,24.7700,24.2400,24.7100,1378848
2016-12-29,24.0000,24.4200,23.8750,24.3500,1034831
2016-12-28,23.9100,24.1000,23.8500,23.9800,954356
2016-12-27,24.3400,24.3900,24.1010,24.1900,686118
2016-12-23,24.3500,24.3950,24.1100,24.3000,577149
2016-12-22,24.1500,24.3000,23.9805,24.2500,1176148
2016-12-21,24.5900,24.7800,24.1400,24.1400,1129932
2016-12-20,24.7000,24.8650,24.3150,24.5200,1747803
2016-12-19,24.3300,24.8700,24.2300,24.8100,1296806
2016-12-16,23.7700,24.3100,23.7700,24.1200,2603374
2016-12-15,23.9400,24.1900,23.6000,23.6500,1749972
2016-12-14,24.7400,24.7550,23.9300,24.0100,1587757
2016-12-13,24.7500,25.0600,24.5400,24.6700,2222043
2016-12-12,24.8500,25.2100,24.8300,25.0300,794384
2016-12-09,24.9100,25.1300,24.8900,25.0000,1083755
2016-12-08,24.6200,25.0100,24.6200,24.8900,1465707
2016-12-07,24.3700,25.1300,24.3700,24.8100,1460144
2016-12-06,24.6000,24.7830,24.1900,24.2600,1377983
2016-12-05,24.4700,24.5600,24.0100,24.5500,1487176
2016-12-02,24.1700,25.0700,24.1700,24.4500,2059434
2016-12-01,24.5400,24.6600,23.6700,23.9300,1832405
2016-11-30,25.0000,25.0900,24.5800,24.7200,1335491
2016-11-29,24.9100,25.3200,24.9100,25.1900,1215093
2016-11-28,24.6700,25.1300,24.6500,24.9400,1181780
2016-11-25,24.5200,24.8300,24.4200,24.6000,354432
2016-11-23,24.3500,24.4500,24.1605,24.4400,671727
2016-11-22,24.1800,24.7000,24.0700,24.6900,1542646
2016-11-21,24.4200,24.6300,24.0500,24.0600,919898
2016-11-18,24.2900,24.4350,24.0850,24.2800,960147
2016-11-17,24.6800,24.8300,24.2200,24.2400,1133811
2016-11-16,24.5800,24.7000,24.2900,24.6400,984313
2016-11-15,24.8300,25.0600,24.3600,24.5600,1148093
2016-11-14,24.3400,24.7800,23.9000,24.7300,1494667
2016-11-11,23.8600,24.9000,23.8350,24.4600,1837623
2016-11-10,25.1700,25.4000,23.7200,23.7900,2618483
2016-11-09,26.3100,26.3100,25.3500,25.5300,1925932
2016-11-08,26.6000,27.0000,26.5100,26.9300,1411712
2016-11-07,26.3100,26.7600,26.1700,26.6600,1134050
2016-11-04,25.8700,26.1900,25.7100,25.9500,1020010
2016-11-03,26.3000,26.7300,25.9300,25.9500,1035756
2016-11-02,26.7500,26.7500,26.2700,26.3200,683347
2016-11-01,27.2000,27.2100,26.5100,26.7200,1012185
2016-10-31,27.1100,27.2900,26.7800,27.2900,1328672
2016-10-28,26.8500,27.1500,26.6200,26.9700,1179483
2016-10-27,27.6700,27.6700,26.8600,26.8600,965001
2016-10-26,28.0900,28.2200,27.3899,27.7900,922050
2016-10-25,28.0900,28.2250,27.9800,28.2100,808992
2016-10-24,28.2300,28.5800,27.9700,28.1500,512716
2016-10-21,28.1400,28.3200,28.0400,28.1000,536318
2016-10-20,28.4000,28.4660,28.1200,28.3600,522959
2016-10-19,28.2400,28.5300,28.0100,28.4400,972062
2016-10-18,28.3300,28.4750,28.1400,28.2700,622593
2016-10-17,28.0100,28.4000,27.9460,28.1700,683426
2016-10-14,28.2200,28.4000,27.9300,28.0200,605719
2016-10-13,27.6600,28.2500,27.6501,28.1900,1269221
2016-10-12,27.6000,27.9000,27.4700,27.8500,1073606
2016-10-11,27.6400,27.6850,27.4000,27.4900,1014962
2016-10-10,27.5000,27.8100,27.4500,27.7300,641558
2016-10-07,27.5500,27.8500,27.3500,27.4800,1092046
2016-10-06,27.2700,27.4900,26.9900,27.4400,1218270
2016-10-05,28.5800,28.5800,27.3900,27.4900,1212315
2016-10-04,29.2700,29.2700,28.3500,28.5600,993049
2016-10-03,29.3300,29.5000,29.0900,29.2900,1366864
2016-09-30,29.8300,29.9200,29.4700,29.4700,1671789
2016-09-29,29.7200,29.8300,29.2100,29.6000,1152965
2016-09-28,29.7600,29.8500,29.5700,29.8000,730797
2016-09-27,30.5700,30.6490,29.7800,29.9200,1151578
2016-09-26,30.3000,30.5200,30.1000,30.4300,621885
2016-09-23,30.0900,30.3800,29.7800,30.3000,575760
2016-09-22,29.8800,30.1150,29.8500,30.0900,755953
2016-09-21,29.1900,29.6300,28.6800,29.6000,1073570
2016-09-20,29.2700,29.3700,29.1100,29.1600,1267212
2016-09-19,28.5900,29.1500,28.5300,29.1200,1210261
2016-09-16,28.4300,28.6150,28.3500,28.5500,3932459
2016-09-15,28.5700,28.7400,28.5050,28.5800,947950
2016-09-14,28.4900,28.6600,28.2100,28.5700,884135
2016-09-13,28.8000,28.9400,28.2100,28.3700,1003772
2016-09-12,28.2400,29.0900,28.2400,28.9900,1080775
2016-09-09,29.4000,29.6100,28.4300,28.5800,1290255
2016-09-08,30.0500,30.0500,29.6600,29.8300,764411
2016-09-07,30.0700,30.2350,29.9100,30.1900,1832780
2016-09-06,29.6500,30.1500,29.6100,30.0300,2028867
2016-09-02,29.5400,30.2500,29.4600,29.6400,1695501
2016-09-01,29.6600,29.8900,29.4000,29.4500,1205712
2016-08-31,29.5000,29.6900,29.3310,29.6300,965692
2016-08-30,29.9300,29.9300,29.4300,29.5900,475092
2016-08-29,29.8300,30.0000,29.6400,29.8300,568486
2016-08-26,30.1100,30.2998,29.5000,29.6300,528640
2016-08-25,29.9800,30.1950,29.8200,29.9500,626609
2016-08-24,30.1300,30.2000,29.6250,29.9400,515669
2016-08-23,30.0600,30.4200,29.8701,30.1600,583310
2016-08-22,30.0800,30.2500,29.9300,29.9700,653351
2016-08-19,30.0000,30.0900,29.7800,30.0700,1233696
2016-08-18,29.8200,30.1050,29.8100,29.9700,821859
2016-08-17,29.7400,29.8300,29.4000,29.7800,820952
2016-08-16,29.8500,29.9100,29.3600,29.6700,1092265
2016-08-15,30.2500,30.3900,29.9100,29.9900,1044499
2016-08-12,30.0400,30.3950,30.0100,30.1500,742539
2016-08-11,30.0000,30.0700,29.6100,29.8900,900804
2016-08-10,30.0300,30.1300,29.9400,30.0000,787068
2016-08-09,29.6200,30.0600,29.3100,29.9600,956550
2016-08-08,29.7100,29.7100,29.2600,29.5500,1426866
2016-08-05,30.1000,30.1000,29.3100,29.6700,1316427
2016-08-04,30.4900,30.9800,29.9100,30.0800,1061023
2016-08-03,30.4500,30.5400,30.0100,30.3100,1120465
2016-08-02,31.1200,31.2200,30.4600,30.5200,1183427
2016-08-01,31.1500,31.3000,30.9900,31.1800,1335312
2016-07-29,30.6300,31.4400,30.6300,31.1900,1688092
2016-07-28,30.0500,30.8300,30.0500,30.6900,1232462
2016-07-27,30.0600,30.1500,29.8400,30.0500,1323823
2016-07-26,30.1000,30.1800,29.9300,30.1000,863196
2016-07-25,30.1400,30.1400,29.7300,29.9800,694782
2016-07-22,29.8100,30.1700,29.8100,30.0500,537345
2016-07-21,29.5800,29.8300,29.4110,29.8000,1011927
2016-07-20,29.7200,29.7200,29.5300,29.6500,611752
2016-07-19,29.4900,29.6500,29.4400,29.6400,654857
2016-07-18,29.3500,29.5600,29.2650,29.4900,552745
2016-07-15,29.3400,29.4650,29.0900,29.2900,997716
2016-07-14,29.3400,29.4850,29.2100,29.2400,972765
2016-07-13,29.5100,29.7500,29.3100,29.6000,1138492
2016-07-12,29.6100,29.7500,29.1200,29.4600,1873848
2016-07-11,29.7600,29.8100,29.4500,29.6800,1076420
2016-07-08,29.5300,29.8300,29.3200,29.6600,1352435
2016-07-07,29.5800,29.5900,29.0400,29.4400,1708596
2016-07-06,29.6100,29.8400,29.4100,29.6200,1437952
2016-07-05,29.3100,29.6950,29.2393,29.6000,1160319
2016-07-01,29.5500,29.6700,29.1200,29.2700,1217323
2016-06-30,28.7100,29.4700,28.5600,29.4500,3066614
2016-06-29,28.4000,28.7700,28.3400,28.7300,1407821
2016-06-28,27.8500,28.3000,27.6430,28.2800,2158736
2016-06-27,27.7600,27.9100,27.3300,27.8600,2281503
2016-06-24,26.6900,27.9300,26.6800,27.7900,10718352
2016-06-23,27.2400,27.3800,27.0100,27.0400,1208277
2016-06-22,27.1600,27.2700,27.0000,27.1900,1307314
2016-06-21,26.8600,27.2050,26.8600,27.1600,1392305
2016-06-20,27.0200,27.1400,26.8300,26.8800,1175111
2016-06-17,27.1500,27.2200,26.6350,26.9500,1980757
2016-06-16,26.7500,27.2200,26.7400,27.1400,1636550
2016-06-15,26.5900,26.9200,26.3700,26.8600,1742478
2016-06-14,26.4500,26.6100,26.2600,26.6000,1835664
2016-06-13,26.5400,26.8100,26.4300,26.4600,1405489
2016-06-10,26.5700,26.9600,26.5300,26.6800,1047502
2016-06-09,26.5400,26.9400,26.3900,26.7800,1086615
2016-06-08,26.4700,26.6600,26.3100,26.5500,824107
2016-06-07,26.3300,26.5000,26.3050,26.4700,1105470
2016-06-06,26.1800,26.4500,26.1700,26.3000,2634283
2016-06-03,26.1200,26.2700,26.0300,26.2200,1438421
2016-06-02,25.5200,25.8300,25.4300,25.8000,1329458
2016-06-01,25.4300,25.6900,25.3800,25.5100,1423263
2016-05-31,25.7600,25.8050,25.4050,25.5300,2321653
2016-05-27,25.4000,25.8000,25.4000,25.6900,1277943
2016-05-26,25.3700,25.5200,25.1700,25.3700,920450
2016-05-25,25.4700,25.5200,25.0400,25.3200,1500414
2016-05-24,25.3000,25.5200,25.0726,25.3900,3372008
2016-05-23,25.0000,25.3500,24.9800,25.2700,1534719
2016-05-20,25.2100,25.2400,24.8900,25.0600,1290718
2016-05-19,25.3300,25.3300,24.8100,25.0500,1722201
2016-05-18,25.6800,25.8100,25.2900,25.4900,3187763
2016-05-17,25.9200,26.1500,25.5900,25.7300,9068488
2016-05-16,26.0500,26.4270,25.8950,26.2400,1244731
2016-05-13,26.2600,26.2900,25.7700,25.9500,1411567
2016-05-12,26.4200,26.5600,26.0900,26.3500,2535821
2016-05-11,26.5000,26.6100,25.9400,26.2800,1232427
2016-05-10,26.7400,26.8500,26.4100,26.5200,1103533
2016-05-09,26.4800,26.8000,26.3700,26.6100,1461213
2016-05-06,26.4800,26.7400,26.3400,26.4300,2060435
2016-05-05,25.9300,26.8900,25.0200,26.4600,3068451
2016-05-04,26.0500,26.7500,26.0000,26.5900,2456074
2016-05-03,25.8500,26.2000,25.8400,26.1300,1268828
2016-05-02,25.8900,26.3000,25.8300,25.9100,1934080
2016-04-29,25.7000,25.8700,25.4200,25.6700,1137055
2016-04-28,25.7200,25.9900,25.7200,25.8500,747415
2016-04-27,25.9100,26.0000,25.5500,25.9000,787883
2016-04-26,25.9000,26.1500,25.7800,25.9400,1151758
2016-04-25,25.5700,25.9000,25.3200,25.9000,821436
2016-04-22,25.3100,25.5400,25.1710,25.5200,992483
2016-04-21,26.1200,26.1400,25.1800,25.1900,1417646
2016-04-20,26.9500,26.9500,26.1100,26.1800,1471361
2016-04-19,26.5700,26.9500,26.4800,26.9500,1661079
2016-04-18,26.4500,26.5900,26.4008,26.5800,969700
2016-04-15,26.2900,26.4900,26.2500,26.4000,1427806
2016-04-14,26.5600,26.6400,26.2100,26.2300,1029077
2016-04-13,26.9000,26.9000,26.3100,26.6300,1697780
2016-04-12,26.6000,26.7900,26.4500,26.7900,2905063
2016-04-11,26.2400,26.6900,26.2400,26.4900,2471438
2016-04-08,26.0100,26.2250,25.8200,26.2000,3384185
2016-04-07,25.8700,26.0200,25.6400,25.9200,1399061
2016-04-06,25.9400,26.0400,25.6700,25.8800,1479900
2016-04-05,25.5100,25.9000,25.3800,25.8600,2129605
2016-04-04,25.7000,25.7500,25.2600,25.6400,1927944
2016-04-01,25.8100,25.8900,25.3150,25.5800,2612595
2016-03-31,25.6500,26.0400,25.6500,25.8800,3809214
2016-03-30,25.4200,25.9700,25.3100,25.7100,15289385
2016-03-29,25.2800,25.9800,25.2500,25.9800,1538818
2016-03-28,25.8900,25.9299,25.4200,25.5800,2096522
2016-03-24,25.7100,25.8700,25.6200,25.8100,1236784
2016-03-23,25.7200,25.8800,25.6501,25.7600,972510
2016-03-22,25.7800,26.0000,25.5700,25.7600,1285354
2016-03-21,25.7700,26.0300,25.5300,25.7800,1312844
2016-03-18,25.8600,25.9950,25.6000,25.9000,2428172
2016-03-17,25.5500,26.0800,25.4300,25.7500,1694675
2016-03-16,25.1000,25.5500,24.9600,25.5400,869111
2016-03-15,24.9200,25.2200,24.8900,25.1100,1063720
2016-03-14,25.0200,25.1400,24.9550,24.9900,632478
2016-03-11,24.8700,25.0800,24.8200,24.9500,2110800
2016-03-10,24.7000,24.8000,24.4000,24.6500,1427518
2016-03-09,24.5200,24.7700,24.4300,24.6300,1995194
2016-03-08,24.2800,24.4700,24.1400,24.4300,1830596
2016-03-07,24.1000,24.2800,24.0500,24.2500,2111244
2016-03-04,24.3600,24.3800,24.1000,24.1200,1682519
2016-03-03,24.3900,24.4100,24.2500,24.3700,1185372
2016-03-02,24.3100,24.3800,24.1000,24.3200,2151491
2016-03-01,24.2300,24.4200,24.1500,24.3300,2818769
2016-02-29,24.1700,24.2500,24.1000,24.1500,2781941
2016-02-26,24.2300,24.4300,24.0000,24.1000,9456620
2016-02-25,24.6000,25.0700,24.6000,24.8500,803751
2016-02-24,24.8100,24.9800,24.2500,24.5600,1004370
2016-02-23,26.2400,26.3500,24.3700,24.8300,1730497
2016-02-22,25.7200,25.9400,25.5300,25.6400,929224
2016-02-19,25.3300,25.6500,25.2500,25.5100,954621
2016-02-18,25.4800,25.4900,25.1100,25.3000,985099
2016-02-17,25.7000,25.7800,25.2700,25.5000,1050456
2016-02-16,25.4200,25.5450,25.0600,25.5200,661852
2016-02-12,25.2200,25.2750,24.5500,25.0900,713629
2016-02-11,24.5900,25.2400,24.5000,24.9900,1159372
2016-02-10,25.2500,25.5700,24.8250,24.9200,732831
2016-02-09,24.5800,25.2600,24.5700,25.1600,1517343
2016-02-08,25.2900,25.3250,24.3400,24.8300,1513341
2016-02-05,25.5800,25.6500,25.3100,25.4000,1280080
2016-02-04,25.3100,25.6100,25.1500,25.5800,1109053
2016-02-03,25.2800,25.6900,24.9250,25.3200,1628231
2016-02-02,25.2200,25.4700,24.9800,25.4700,1227308
2016-02-01,24.6600,25.3500,24.5000,25.2200,1576740
2016-01-29,24.6100,25.5600,24.4500,24.7900,2652848
2016-01-28,23.8700,24.4700,23.7200,24.3900,3436498
2016-01-27,23.2500,24.1000,23.2500,23.7300,6021104
2016-01-26,23.6700,23.9600,23.4300,23.7500,820802
2016-01-25,23.6800,23.9400,23.3100,23.5000,938251
2016-01-22,23.1300,23.7925,22.9800,23.6800,1238940
2016-01-21,22.6300,23.1000,22.5100,22.8800,1294546
2016-01-20,22.7600,22.7950,22.0100,22.5400,1111993
2016-01-19,22.5500,22.8800,22.5100,22.8200,704111
2016-01-15,22.1200,22.4500,22.0050,22.3800,912117
2016-01-14,22.6000,22.6100,22.2300,22.4500,642062
2016-01-13,23.0300,23.0400,22.3400,22.4500,755687
2016-01-12,23.2200,23.2200,22.9100,23.0300,922294
2016-01-11,22.7500,23.1000,22.7100,22.9800,501244
2016-01-08,22.8000,22.9500,22.6200,22.7100,652516
2016-01-07,22.7500,22.9300,22.6200,22.7400,530376
2016-01-06,23.1100,23.2300,22.9800,22.9900,638107
2016-01-05,22.8100,23.2200,22.8100,23.1600,1864558
2016-01-04,23.0600,23.0600,22.5800,22.7600,623333
2015-12-31,23.4000,23.4600,23.0900,23.2000,503823
2015-12-30,23.3300,23.5400,23.2700,23.3200,515436
2015-12-29,22.7800,23.2900,22.7800,23.2900,558546
2015-12-28,22.9300,23.0700,22.7700,23.0400,218444
2015-12-24,23.0900,23.0980,22.8600,22.9100,96337
2015-12-23,22.8400,23.0700,22.7300,23.0400,433354
2015-12-22,22.8300,22.9100,22.7400,22.7900,535678
2015-12-21,22.9900,23.0700,22.6400,22.8100,456858
2015-12-18,22.9100,23.0300,22.7500,22.8900,1756231
2015-12-17,22.9500,23.0500,22.8300,22.9500,583871
2015-12-16,22.6000,22.9900,22.4600,22.9400,940224
2015-12-15,22.6200,22.7700,22.4000,22.4500,1064715
2015-12-14,22.6700,22.8300,22.3850,22.4800,1061778
2015-12-11,22.2300,22.9500,22.1500,22.6700,1766050
2015-12-10,22.9400,23.0200,22.6700,22.7200,742705
2015-12-09,22.8500,23.0500,22.6700,22.9000,806821
2015-12-08,22.8300,23.1700,22.7400,23.0000,915878
2015-12-07,22.9700,22.9700,22.6900,22.9400,738953
2015-12-04,22.4700,22.9700,22.4400,22.7600,845468
2015-12-03,22.8000,22.8400,22.3900,22.4400,1198766
2015-12-02,22.4500,22.8900,22.2700,22.7500,8280119
2015-12-01,22.7800,23.0600,22.6850,23.0500,327495
2015-11-30,23.0400,23.0899,22.7300,22.7600,415127
2015-11-27,22.6700,22.9700,22.6450,22.9000,136362
2015-11-25,22.6100,22.7500,22.5500,22.7300,192616
2015-11-24,22.4500,22.6700,22.2500,22.5400,233867
2015-11-23,22.2600,22.5450,22.2500,22.5300,305174
2015-11-20,22.0700,22.2900,22.0199,22.2500,252168
2015-11-19,21.9700,22.0400,21.8500,21.9300,224821
2015-11-18,21.8600,21.9950,21.7300,21.9500,182891
2015-11-17,21.7500,21.9750,21.5700,21.8700,343674
2015-11-16,21.6000,21.8500,21.5600,21.7800,253450
2015-11-13,21.8400,22.0000,21.4800,21.6500,359392
2015-11-12,22.8500,22.8500,21.7900,21.8200,426911
2015-11-11,21.5300,21.7500,21.4200,21.6600,518837
2015-11-10,21.3500,21.6100,21.2900,21.5000,424584
2015-11-09,21.6700,21.6700,21.1900,21.3200,570341
2015-11-06,22.2200,22.3600,21.6500,21.7500,820802
2015-11-05,22.5900,22.6700,22.3400,22.4500,703125
2015-11-04,22.9200,22.9200,22.4300,22.5500,462956
2015-11-03,22.7600,22.9200,22.5300,22.8200,423712
2015-11-02,22.6200,22.8300,22.4400,22.8300,920728
2015-10-30,22.8300,22.8700,22.4500,22.6700,444585
2015-10-29,23.0200,23.1120,22.5200,22.7800,660743
2015-10-28,22.8800,23.0500,22.6100,23.0500,735020
2015-10-27,23.0000,23.1300,22.5800,22.8800,691768
2015-10-26,22.5400,22.6800,22.4200,22.6400,451662
2015-10-23,22.6400,22.7800,22.3500,22.5100,633193
2015-10-22,22.2200,22.8600,22.1800,22.6300,432371
2015-10-21,22.2700,22.3650,22.1000,22.1400,255996
2015-10-20,22.2200,22.4200,22.1200,22.2600,378388
2015-10-19,21.7400,22.2500,21.6100,22.2400,429519
2015-10-16,21.6200,22.1000,21.5500,22.0800,588439
2015-10-15,21.4000,21.6200,21.0400,21.5700,663427
2015-10-14,21.6300,21.7500,21.3100,21.3700,409604
2015-10-13,21.6800,21.7700,21.4700,21.6000,417413
2015-10-12,21.6500,21.9200,21.6400,21.7100,444217
2015-10-09,21.6100,21.7700,21.4800,21.6200,449423
2015-10-08,21.5000,21.7100,21.4400,21.5700,413576
2015-10-07,21.3700,21.6100,21.3000,21.5400,347802
2015-10-06,21.1900,21.4000,21.1200,21.3100,332188
2015-10-05,20.9900,21.2500,20.9240,21.1600,604090
2015-10-02,20.6300,20.9400,20.3600,20.9300,793788
2015-10-01,20.7100,20.8100,20.5500,20.7000,449868
2015-09-30,20.8900,20.8900,20.5400,20.6600,698931
2015-09-29,20.6300,20.9600,20.5640,20.7700,760331
2015-09-28,20.9100,20.9800,20.4100,20.5600,435183
2015-09-25,21.3900,21.4550,21.1300,21.1800,727808
2015-09-24,21.5100,21.5900,21.2250,21.3100,452292
2015-09-23,21.3900,21.6300,21.2100,21.5200,491539
2015-09-22,21.3500,21.5100,21.0800,21.3300,824807
2015-09-21,21.7300,21.8100,21.4300,21.5300,508398
2015-09-18,21.2100,21.8300,21.2100,21.5800,2180841
2015-09-17,21.0200,21.7100,20.8800,21.4000,602661
2015-09-16,20.3900,21.1501,20.3900,21.0800,616458
2015-09-15,20.5100,20.6220,20.3200,20.4600,401959
2015-09-14,20.5000,20.5700,20.3400,20.4800,436249
2015-09-11,20.0900,20.4600,20.0900,20.4000,1219736
2015-09-10,19.8000,20.3200,19.7000,20.1400,1273695
2015-09-09,20.4400,20.5000,19.8200,19.8600,603582
2015-09-08,20.0400,20.4200,19.9100,20.3100,543775
2015-09-04,19.9200,20.2100,19.7300,19.8200,422971
2015-09-03,19.9100,20.2800,19.9100,20.1100,359260
2015-09-02,19.8300,19.9900,19.6500,19.9800,930996
2015-09-01,19.9100,20.2000,19.6300,19.7900,452610
2015-08-31,20.5000,20.5998,20.0800,20.1600,554364
2015-08-28,20.6100,20.8300,20.4500,20.6300,414208
2015-08-27,20.3500,20.7700,20.1400,20.5900,543064
2015-08-26,20.4800,20.4900,20.0250,20.2300,618243
2015-08-25,20.7900,20.7900,20.0900,20.1300,741856
2015-08-24,20.6900,20.8800,19.8400,20.2600,576423
2015-08-21,21.1300,21.5400,21.0300,21.0600,506901
2015-08-20,21.4700,21.5500,21.3000,21.3500,229615
2015-08-19,21.5200,21.7100,21.3400,21.5600,202809
2015-08-18,21.7200,21.8000,21.5400,21.6600,419789
2015-08-17,21.6900,21.8700,21.6500,21.8400,316649
2015-08-14,21.7000,21.8800,21.4800,21.7600,255486
2015-08-13,22.0000,22.3700,21.3600,21.7800,891780
2015-08-12,21.2200,21.4000,21.1000,21.3500,592917
2015-08-11,20.9300,21.4500,20.9000,21.3000,460195
2015-08-10,21.3400,21.3800,20.9500,20.9700,256336
2015-08-07,21.0900,21.3100,20.9350,21.3100,300762
2015-08-06,21.0700,21.2900,20.8100,21.2000,348252
2015-08-05,21.5500,21.5700,20.9500,21.1000,289353
2015-08-04,21.4600,21.6400,21.3100,21.4900,554664
2015-08-03,20.9500,21.5000,20.9100,21.4400,387130
2015-07-31,21.1100,21.2300,20.9600,21.0000,627984
2015-07-30,21.1500,21.2000,20.9200,20.9600,496393
2015-07-29,20.9300,21.2700,20.7000,21.2100,343009
2015-07-28,20.9300,21.6900,20.6800,20.9700,296111
2015-07-27,20.8100,21.2100,20.7200,20.8700,208913
2015-07-24,20.9100,21.0800,20.7800,20.7800,253298
2015-07-23,21.5000,21.5680,20.8700,20.9100,648228
2015-07-22,21.0100,21.2400,20.9600,21.1000,210560
2015-07-21,20.9900,21.1500,20.8400,20.9500,213911
2015-07-20,21.1000,21.2499,20.9600,21.0300,217377
2015-07-17,20.9700,21.1300,20.8900,21.1200,222645
2015-07-16,20.9500,21.0800,20.8700,20.9700,210392
2015-07-15,20.6600,20.9050,20.6600,20.8600,291029
2015-07-14,20.6800,20.8000,20.6200,20.7600,301204
2015-07-13,20.7500,21.0200,20.5600,20.6900,267626
2015-07-10,20.6000,20.7800,20.5700,20.7200,227985
2015-07-09,20.7100,20.7400,20.4900,20.5000,345883
2015-07-08,20.4600,20.6200,20.4000,20.5800,617105
2015-07-07,20.4000,20.6300,20.2900,20.5700,883473
2015-07-06,20.1000,20.5000,20.0100,20.3500,733216
2015-07-02,20.3500,20.5200,20.0200,20.1600,1041952
2015-07-01,20.1100,20.4000,19.9100,20.3800,425137
2015-06-30,20.4400,20.4400,19.9800,20.1000,494474
2015-06-29,20.4500,20.7000,20.2000,20.2600,575377
2015-06-26,20.2200,20.5000,20.0700,20.5000,368125
2015-06-25,20.5600,20.6600,20.4400,20.4700,1229333
2015-06-24,20.6800,20.7800,20.5000,20.5600,904103
2015-06-23,21.0000,21.0350,20.6400,20.6500,690718
2015-06-22,21.2800,21.3600,21.0300,21.0400,418497
2015-06-19,21.3700,21.4000,21.0800,21.2600,653147
2015-06-18,21.0000,21.4400,20.9800,21.3600,428603
2015-06-17,20.9100,21.0600,20.7300,21.0100,386475
2015-06-16,20.9600,20.9880,20.8100,20.8500,546389
2015-06-15,20.7700,20.9100,20.7000,20.8300,384357
2015-06-12,20.7100,21.0900,20.7050,20.8600,1367629
2015-06-11,20.5600,20.8200,20.4700,20.7500,737539
2015-06-10,20.3800,20.5900,20.3000,20.4700,589822
2015-06-09,20.5600,20.6700,20.2800,20.3500,603897
2015-06-08,20.7200,20.7980,20.5600,20.6200,866897
2015-06-05,20.3500,20.9450,20.3500,20.8000,1792285
2015-06-04,20.1950,20.8400,19.9600,20.7000,8697995
2015-06-03,20.9000,20.9000,20.3150,20.3700,1060929
2015-06-02,20.8900,20.9900,20.6000,20.9800,573735
2015-06-01,20.9000,21.1500,20.7600,21.0400,495880
2015-05-29,21.2500,21.5250,20.8000,20.8600,2518663
2015-05-28,21.4900,21.5250,21.1500,21.2600,280207
2015-05-27,21.4800,21.6300,21.4100,21.5300,322512
2015-05-26,21.5900,21.6350,21.3700,21.4800,373830
2015-05-22,21.4800,21.6800,21.3250,21.6100,242374
2015-05-21,21.6300,21.7200,21.3700,21.4900,229180
2015-05-20,21.8100,21.9000,21.5800,21.6200,262976
2015-05-19,21.8900,21.9700,21.6700,21.8300,363758
2015-05-18,21.9400,22.1700,21.8300,22.1500,485559
2015-05-15,21.7500,22.0500,21.6900,22.0200,1077466
2015-05-14,21.7600,21.9400,21.2300,21.7500,791507
2015-05-13,21.5900,21.9600,21.3300,21.4300,708006
2015-05-12,21.3100,21.5800,20.8800,21.4900,454735
2015-05-11,21.4700,21.7400,21.3000,21.4700,827120
2015-05-08,21.2600,21.6400,21.2100,21.5700,469833
2015-05-07,20.7200,21.0800,20.5700,21.0200,211272
2015-05-06,20.8000,20.9037,20.4800,20.7200,202416
2015-05-05,21.0100,21.1000,20.7600,20.7900,469145
2015-05-04,21.1450,21.3700,20.9700,21.1000,1028744
2015-05-01,21.0400,21.2000,20.7900,21.0000,587692
2015-04-30,21.3500,21.3500,20.8400,21.0000,392457
2015-04-29,21.4800,21.5700,21.2136,21.3300,464788
2015-04-28,21.8000,21.8500,21.6000,21.6900,507828
2015-04-27,22.0000,22.0950,21.6400,21.7900,385972
2015-04-24,21.8600,22.1245,21.6500,21.9600,862500
2015-04-23,22.3800,22.5000,21.7900,21.8800,708798
2015-04-22,22.8600,22.8745,22.3900,22.4000,403744
2015-04-21,22.8400,22.9700,22.7100,22.7900,379792
2015-04-20,22.8800,22.9900,22.7000,22.7100,288569
2015-04-17,23.1400,23.3100,22.7500,22.7900,548565
2015-04-16,23.3400,23.4900,23.0501,23.2900,541693
2015-04-15,23.5600,23.5900,23.3200,23.3600,516192
2015-04-14,23.5300,23.9700,23.3000,23.4300,455982
2015-04-13,23.4500,23.6900,23.2900,23.3800,195939
2015-04-10,23.5800,23.7600,23.2200,23.3600,670965
2015-04-09,23.5800,23.6800,23.1400,23.2300,440124
2015-04-08,23.5000,23.7800,23.4600,23.6700,341240
2015-04-07,23.7400,23.8200,23.4700,23.5500,337837
2015-04-06,23.4700,23.8950,23.3400,23.7700,541911
2015-04-02,23.3200,23.5600,23.2000,23.5000,254924
2015-04-01,23.2600,23.4400,23.1100,23.3400,278745
2015-03-31,23.4600,23.7000,23.2400,23.3500,611457
2015-03-30,23.3500,23.5200,23.1100,23.4200,539067
2015-03-27,22.6600,23.3500,22.6560,23.1800,727834
2015-03-26,22.7400,23.0600,22.5721,22.9200,846212
2015-03-25,23.1400,23.4700,22.6800,22.8000,335184
2015-03-24,23.6900,23.8800,23.0600,23.1600,517689
2015-03-23,23.5500,24.0600,23.2400,23.5400,601809
2015-03-20,22.6400,23.8300,22.6000,23.5500,2726637
2015-03-19,22.2600,22.7700,22.1500,22.6700,331143
2015-03-18,21.8500,22.5100,21.7000,22.3700,396363
2015-03-17,21.9700,22.2000,21.6100,21.8300,346407
2015-03-16,21.7800,22.0200,21.4600,22.0100,548935
2015-03-13,21.7800,21.9100,21.5000,21.5800,254415
2015-03-12,21.6300,22.0700,21.4500,21.7600,270297
2015-03-11,21.3700,21.7800,21.2900,21.4900,337133
2015-03-10,21.2800,21.5800,21.2600,21.2800,415116
2015-03-09,21.3400,21.6450,21.2500,21.4400,640587
2015-03-06,21.8400,21.8500,21.0900,21.2900,397289
2015-03-05,21.8300,22.1200,21.6800,22.0400,182242
2015-03-04,21.9500,22.3200,21.8300,21.8500,267966
2015-03-03,22.5000,22.5000,21.9800,22.0800,549580
2015-03-02,22.6200,23.0300,22.5200,22.6000,463229
2015-02-27,22.2300,22.7600,22.2300,22.6400,544347
2015-02-26,22.6200,23.0200,22.1800,22.2500,706929
2015-02-25,22.1100,22.7100,22.0480,22.2100,388517
2015-02-24,22.6100,22.6800,21.9900,22.0600,407747
2015-02-23,22.3100,22.7600,22.2400,22.6100,430321
2015-02-20,22.2700,22.8700,22.1618,22.3000,430599
2015-02-19,22.7200,22.9400,22.2600,22.3400,246070
2015-02-18,22.6300,22.9400,22.4700,22.8400,482369
2015-02-17,22.4200,22.7800,22.2900,22.6700,305848
2015-02-13,22.6900,22.8200,22.2100,22.4000,308131
2015-02-12,22.3700,22.9300,22.2200,22.6700,548206
2015-02-11,22.0800,22.4300,21.8800,22.3000,464526
2015-02-10,22.3000,22.3400,21.8100,22.1600,402948
2015-02-09,22.1800,22.4800,22.0432,22.1500,268932
2015-02-06,23.0100,23.1680,22.1600,22.2000,264638
2015-02-05,23.0000,23.2900,22.7939,23.0700,255463
2015-02-04,23.1900,23.2300,22.8400,22.9300,231342
2015-02-03,22.6700,23.3600,22.5700,23.3500,809103
2015-02-02,22.9200,22.9600,21.9710,22.4800,602444
2015-01-30,23.3900,23.6700,22.7100,22.9600,455152
2015-01-29,23.1900,23.5950,23.0100,23.5400,373057
2015-01-28,23.3000,23.3700,22.9200,23.2100,323105
2015-01-27,23.1500,23.3799,23.0500,23.2700,221092
2015-01-26,22.9900,23.3300,22.9300,23.2000,192955
2015-01-23,22.9900,23.3140,22.9100,22.9700,198685
2015-01-22,22.5300,22.9150,22.4490,22.9100,676654
2015-01-21,22.5800,22.9100,22.2900,22.4400,500014
2015-01-20,23.0700,23.1500,22.4200,22.6900,204252
2015-01-16,22.8200,23.2300,22.4000,23.1300,251166
2015-01-15,22.8300,22.8900,22.4500,22.8000,407213
2015-01-14,21.9600,22.8700,21.8200,22.7600,231531
2015-01-13,22.2000,22.4200,21.5500,22.0900,334114
2015-01-12,21.9400,22.9300,21.8000,22.0500,253362
2015-01-09,21.8800,22.0400,21.8000,21.8700,290694
2015-01-08,22.0400,22.0900,21.7600,21.9500,188592
2015-01-07,21.3600,22.0000,21.1400,21.9400,375278
2015-01-06,21.4100,21.7420,20.8000,21.2000,1020719
2015-01-05,21.3500,21.7500,21.2300,21.4800,435237
2015-01-02,21.6600,21.6600,21.1800,21.4300,271309
2014-12-31,22.0900,22.2900,21.6000,21.6100,194729
2014-12-30,21.7600,22.2420,21.6300,22.0400,186499
2014-12-29,21.7200,21.9100,21.1200,21.7800,220016
2014-12-26,21.6300,22.1700,21.2400,21.8000,189078
2014-12-24,21.6800,21.8750,21.3700,21.5800,54007
2014-12-23,21.5900,21.6300,21.1950,21.5200,179427
2014-12-22,21.0800,21.5800,20.8300,21.4800,842663
2014-12-19,21.2900,21.5000,20.7950,21.0600,3087516
2014-12-18,21.4300,22.4631,20.4500,21.3900,646398
2014-12-17,20.5100,21.4400,20.3200,21.1900,616320
2014-12-16,20.3900,20.8600,20.3900,20.5700,795046
2014-12-15,20.5400,20.7800,20.3400,20.5700,535543
2014-12-12,20.2300,20.9800,20.2300,20.4000,431538
2014-12-11,20.2600,20.5300,20.1000,20.4200,306470
2014-12-10,20.5300,21.0150,20.0300,20.2400,296951
2014-12-09,20.3400,20.5300,19.9800,20.5100,292618
2014-12-08,20.1600,20.3425,19.8500,20.1200,736709
2014-12-05,20.4900,20.4900,20.0101,20.3000,306464
2014-12-04,19.9000,20.4100,19.7500,20.2700,569281
2014-12-03,20.5900,20.6000,20.0300,20.1300,654846
2014-12-02,20.4200,20.8800,20.4200,20.5000,519356
2014-12-01,21.0500,21.1300,20.0700,20.3500,376188
2014-11-28,20.7900,21.0690,20.4700,20.8600,339123
2014-11-26,20.0900,20.6900,20.0200,20.5900,486408
2014-11-25,19.9500,20.1800,19.7700,20.0000,481086
2014-11-24,19.7900,19.9900,19.7000,19.9800,712205
2014-11-21,19.8800,19.9500,19.7500,19.8500,283550
2014-11-20,19.8800,19.9500,19.6400,19.8600,577367
2014-11-19,19.5000,19.9000,19.5000,19.7800,1367067
2014-11-18,19.6500,19.8000,19.2500,19.5000,10252827
